[
  {
    "text": "Theres no station in this text",
    "station": null,
    "direction": null,
    "line": null
  },
  {
    "text": "Kontrollen an der U7 Möckernbrücke",
    "station": "900000017104",
    "direction": null,
    "line": "U7"
  },
  {
    "text": "Aufpassen bei S- und U-Bahn. Hab gerade wieder Kontrolletis bei S+U Tempelhof gesehen. Stehen jetzt am Gleis und kontrollieren Leute, die gerade aussteigen. @noticket_bln #noticket_bln",
    "station": "900000068201",
    "direction": null,
    "line": null
  },
  {
    "text": "#noticket_bln @noticket_bln U2 Richtung Ruhleben beim Ausstieg am U-Bahnhof Bismarcksstraße",
    "station": "900000024201",
    "direction": "900000025202",
    "line": "U2"
  },
  {
    "text": "#noticket_bln ringbahn storkowerstrasse richtung gesundbrunnen. 2 männer , ein mit nem 'Fila' rucksack.",
    "station": "900000110012",
    "direction": "900000007102",
    "line": null
  },
  {
    "text": "The sea was angry the day my friends. You're a ribbon bully! I hate men but im not a lesbian",
    "station": null,
    "direction": null,
    "line": null
  },
  {
    "text": "1253 S-Bahn Warschauer Str., Richtung Ostkreuz: min. 3 Kontrollierende (männlich gelesen), alle schwarze Jacken #noticket_bln",
    "station": "900000120004",
    "direction": "900000120003",
    "line": null
  },
  {
    "text": "U9 Berliner Straße in Richtung Osloer",
    "station": "900000044201",
    "direction": "900000009202",
    "line": "U9"
  },
  {
    "text": "#Fahrscheinkontrolle Drei recht junge Kontrolleur*innen (zwei Frauen, ein Mann) Görlitzer Bahnhof. Also wohl u1/u3. Recht schick für Kontrolleur*innen (fake-Wimpern etc) #noticket_bln",
    "station": "900000014101",
    "direction": null,
    "line": "U1"
  },
  {
    "text": "The popo hangin' round shepherds bush ends",
    "station": null,
    "direction": null,
    "line": null
  },
  {
    "text": "Kontrolle Greifswalder str. Eine Frau, kurze Haare Bomberjacke #noticket_bln",
    "station": "900000110003",
    "direction": null,
    "line": null
  },
  {
    "text": "@noticket_bln 06:59 S46 r. Westend ab hermannstrasse 2 Personen einer hat ne halbglatze und ne schwarze Jacke an. Steigen anscheinend südkreuz um",
    "station": "900000079221",
    "direction": "900000026207",
    "line": null
  },
  {
    "text": "@noticket_bln Kontrolle s7 Wannsee -> Griebnitzsee",
    "station": "900000053301",
    "direction": "900000230003",
    "line": "S7"
  },
  {
    "text": "#noticket_bln 12:16 : Vier Kontrolleure im U Bahn Tierpark. 1 mann 3 Frau",
    "station": "900000161002",
    "direction": null,
    "line": null
  },
  {
    "text": "U1/U3 drei Kerle gerade Wahrschauer Straße ausgestiegen @noticket_bln",
    "station": "900000120004",
    "direction": null,
    "line": "U1"
  },
  {
    "text": "@noticket_bln Kontrolle U8. Zwei große Kerle. Eine schwarze, eine dunkelblaue Jacke mit schwarzer Bauchtasche. Ausgestiegen an Weinmeisterstr.",
    "station": "900000100051",
    "direction": null,
    "line": "U8"
  },
  {
    "text": "Ich werde ab jetzt nicht mehr antworten, schönen Abend noch.",
    "station": null,
    "direction": null,
    "line": null
  },
  {
    "text": "Hey @polizeiberlin, how this not illegal assault? Or are VBB Kontrollers above the law?",
    "station": null,
    "direction": null,
    "line": null
  },
  {
    "text": "Kontrolle S41, gerade S Tempelhof #noticket_bln",
    "station": "900000068201",
    "direction": null,
    "line": "S41"
  },
  {
    "text": "Hauptbahnhof  s3 Richtung erkner 2 Kontrolleure parka  dunkle kippt Vollbart",
    "station": "900000003201",
    "direction": "900000310004",
    "line": "S3"
  },
  {
    "text": "@noticket_bln three guys S3 HBF -> Erkner",
    "station": "900000003201",
    "direction": "900000310004",
    "line": "S3"
  },
  {
    "text": "#noticket_bln U1 Richtung Krumme Lanke, nächster Halt Schlesisches Tor - Kontrolle!",
    "station": "900000014102",
    "direction": "900000050201",
    "line": "U1"
  }
]
